id,name,departamento_id
911,AMAZONAS,91
051,BAJO CAUCA,05
052,MAGDALENA MEDIO,05
053,NORDESTE,05
054,NORTE,05
055,OCCIDENTE,05
056,ORIENTE,05
057,SUROESTE,05
058,URABA,05
059,VALLE DEL ABURRA,05
811,ARAUCA,81
881,ARCHIPIELAGO DE S A,88
081,NORTE,08
082,SUR,08
083,CENTRO ORIENTE,08
084,OCCIDENTAL,08
251,BOGOTA,25
131,DEPRESION,13
132,MOMPOSINA,13
133,DIQUE,13
134,BOLIVARENSE,13
135,LOBA,13
136,MAGDALENA MEDIO,13
137,BOLIVARENSE,13
138,MOJANA,13
139,BOLIVARENSE,13
1310,MONTES DE MARIA,13
151,CENTRO,15
152,GUTIERREZ,15
153,LA LIBERTAD,15
154,LENGUPA,15
155,MARQUEZ,15
156,NEIRA,15
157,NORTE,15
158,OCCIDENTE,15
159,ORIENTE,15
1510,RICAURTE,15
1511,SUGAMUXI,15
1512,TUNDAMA,15
1513,VALDERRAMA,15
171,ALTO OCCIDENTE,17
172,ALTO ORIENTE,17
173,BAJO OCCIDENTE,17
174,CENTRO,17
175,NORTE,17
176,ORIENTE,17
181,CAQUETA,18
851,CASANARE,85
191,CENTRO,19
192,NORTE,19
193,OCCIDENTE,19
194,ORIENTE,19
195,SUR,19
201,CENTRAL,20
202,NOROCCIDENTAL,20
203,NORTE,20
204,SUR,20
271,ATRATO,27
272,DARIEN,27
273,PACIFICO NORTE,27
274,PACIFICO SUR,27
275,SAN JUAN,27
231,ALTO SINU,23
232,BAJO SINU,23
233,CENTRO,23
234,COSTANERA,23
235,SABANAS,23
236,SAN JORGE,23
237,SINU MEDIO,23
251,ALMEIDAS,25
252,ALTO MAGDALENA,25
253,BAJO MAGDALENA,25
254,GUALIVA,25
255,GUAVIO,25
256,MAGDALENA CENTRO,25
257,MEDINA,25
258,ORIENTE,25
259,RIO NEGRO,25
2510,\nSABANA CENTRO,25
2511,SABANA,25
2512,OCCIDENTE,25
2513,SOACHA,25
2514,SUMAPAZ,25
2515,TEQUENDAMA,25
2516,UBATE,25
941,GUAINIA,94
951,GUAVIARE,95
411,CENTRO,41
412,NORTE,41
413,OCCIDENTE,41
414,SUR,41
441,NORTE,44
442,SUR,44
471,CENTRO,47
472,NORTE,47
473,RIO,47
474,SANTA MARTA,47
475,SUR,47
501,ARIARI,50
502,CAPITAL,50
503,PIEDEMONTE,50
504,RIO META,50
521,CENTRO,52
522,CENTRO OCCIDENTE,52
523,COSTA,52
524,NORTE,52
525,SUR,52
541,CENTRO,54
542,NORTE,54
543,OCCIDENTE,54
544,ORIENTAL,54
545,SUR OCCIDENTE,54
546,SUR ORIENTE,54
861,PUTUMAYO,86
631,CAPITAL,63
632,CORDILLERANOS,63
633,FRIA,63
634,NORTE,63
635,VALLE,63
661,VERTIENTE ORIENTAL,66
662,VERTIENTE OCCIDENTAL,66
663,VERTIENTE DEL PACIFICO,66
681,COMUNERA,68
682,GARCIA ROVIRA,68
683,GUANENTA,68
684,MARES,68
685,SOTO,68
686,VELEZ,68
701,MOJANA,70
702,MONTES DE MARIA,70
703,MORROSQUILLO,70
704,SABANAS,70
705,SAN JORGE,70
731,NORTE,73
732,ORIENTE,73
733,SUR,73
734,IBAGUE,73
735,SURORIENTE,73
736,NEVADOS,73
761,CENTRO,76
762,NORTE,76
763,OCCIDENTE,76
764,ORIENTE,76
765,SUR,76
971,VAUPES,97
991,VICHADA,99
